…
## how can i bootstrap

write a function to draw a bootsrap sample based on a dataframe

``` r
sim_df_nonconst %>% 
  sample_frac(size = 1 ,replace = TRUE) %>%  ## take the sample with replacement(some x appear more than once), size: proportion, 1: 100%
  arrange(x)
```

    ## # A tibble: 250 x 3
    ##         x  error       y
    ##     <dbl>  <dbl>   <dbl>
    ##  1 -1.89   1.62  -2.04  
    ##  2 -1.29   1.40  -0.454 
    ##  3 -0.989 -1.97  -2.93  
    ##  4 -0.989 -1.97  -2.93  
    ##  5 -0.914 -0.908 -1.65  
    ##  6 -0.914 -0.908 -1.65  
    ##  7 -0.914 -0.908 -1.65  
    ##  8 -0.733  0.447  0.248 
    ##  9 -0.733  0.447  0.248 
    ## 10 -0.606 -0.106  0.0774
    ## # … with 240 more rows
…
``` r
boot_straps %>% 
  filter(strap_num %in% 1:2) %>% 
  mutate(strap_sample = map(strap_sample, ~arrange(.x, x))) %>% 
  pull(strap_sample)
```

    ## [[1]]
    ## # A tibble: 250 x 3
    ##         x  error       y
    ##     <dbl>  <dbl>   <dbl>
    ##  1 -1.29   1.40  -0.454 
    ##  2 -0.989 -1.97  -2.93  
    ##  3 -0.914 -0.908 -1.65  
    ##  4 -0.914 -0.908 -1.65  
    ##  5 -0.805  0.292 -0.123 
    ##  6 -0.805  0.292 -0.123 
    ##  7 -0.665 -0.544 -0.539 
    ##  8 -0.641 -0.416 -0.338 
    ##  9 -0.606 -0.106  0.0774
    ## 10 -0.606 -0.106  0.0774
    ## # … with 240 more rows
    ## 
    ## [[2]]
    ## # A tibble: 250 x 3
    ##         x  error      y
    ##     <dbl>  <dbl>  <dbl>
    ##  1 -1.89   1.62  -2.04 
    ##  2 -1.89   1.62  -2.04 
    ##  3 -1.29   1.40  -0.454
    ##  4 -1.29   1.40  -0.454
    ##  5 -1.00   0.832 -0.169
    ##  6 -0.914 -0.908 -1.65 
    ##  7 -0.805  0.292 -0.123
    ##  8 -0.665 -0.544 -0.539
    ##  9 -0.665 -0.544 -0.539
    ## 10 -0.665 -0.544 -0.539
    ## # … with 240 more rows
…
use package

``` r
sim_df_nonconst %>% 
  modelr::bootstrap(n = 1000) %>% 
  mutate(
    models = map(strap,~ lm(y ~ x, data = .x)),
    results = map(models,broom::tidy)
  ) %>% 
  select(-strap,-models) %>% 
  unnest(results)
```

    ## # A tibble: 2,000 x 6
    ##    .id   term        estimate std.error statistic   p.value
    ##    <chr> <chr>          <dbl>     <dbl>     <dbl>     <dbl>
    ##  1 0001  (Intercept)     1.90    0.101       18.8 1.05e- 49
    ##  2 0001  x               3.11    0.0774      40.2 1.27e-110
    ##  3 0002  (Intercept)     1.87    0.0944      19.8 5.17e- 53
    ##  4 0002  x               3.24    0.0667      48.6 1.13e-128
    ##  5 0003  (Intercept)     2.01    0.115       17.5 2.87e- 45
    ##  6 0003  x               2.96    0.0776      38.1 1.38e-105
    ##  7 0004  (Intercept)     1.91    0.114       16.7 1.31e- 42
    ##  8 0004  x               3.12    0.0818      38.1 1.03e-105
    ##  9 0005  (Intercept)     1.92    0.109       17.7 8.68e- 46
    ## 10 0005  x               3.05    0.0748      40.8 4.45e-112
    ## # … with 1,990 more rows
…
