…
## Cross Validation

``` r
cv_df = 
  crossv_mc(nonlin_df, 100)  
#crossv_mc preforms the training / testing split multiple times, a stores the datasets using list columns.

cv_df = 
  crossv_mc(nonlin_df,100, test = 0.2) ## 80/20 is the default  


cv_df %>% pull(train) %>% .[[1]] %>% as_tibble()
```

    ## # A tibble: 79 x 3
    ##       id      x       y
    ##    <int>  <dbl>   <dbl>
    ##  1     1 0.266   1.11  
    ##  2     3 0.573   0.358 
    ##  3     4 0.908  -3.04  
    ##  4     5 0.202   1.33  
    ##  5     6 0.898  -1.99  
    ##  6     7 0.945  -3.27  
    ##  7     8 0.661  -0.615 
    ##  8     9 0.629   0.0878
    ##  9    10 0.0618  0.392 
    ## 10    14 0.384   0.938 
    ## # … with 69 more rows

``` r
cv_df %>% pull(train) %>% .[[3]] %>% as_tibble()
```

    ## # A tibble: 79 x 3
    ##       id     x      y
    ##    <int> <dbl>  <dbl>
    ##  1     1 0.266  1.11 
    ##  2     2 0.372  0.764
    ##  3     3 0.573  0.358
    ##  4     5 0.202  1.33 
    ##  5     6 0.898 -1.99 
    ##  6     8 0.661 -0.615
    ##  7    11 0.206  1.63 
    ##  8    12 0.177  0.836
    ##  9    13 0.687 -0.291
    ## 10    14 0.384  0.938
    ## # … with 69 more rows

``` r
cv_df$train[[3]] %>% as_tibble()
```

    ## # A tibble: 79 x 3
    ##       id     x      y
    ##    <int> <dbl>  <dbl>
    ##  1     1 0.266  1.11 
    ##  2     2 0.372  0.764
    ##  3     3 0.573  0.358
    ##  4     5 0.202  1.33 
    ##  5     6 0.898 -1.99 
    ##  6     8 0.661 -0.615
    ##  7    11 0.206  1.63 
    ##  8    12 0.177  0.836
    ##  9    13 0.687 -0.291
    ## 10    14 0.384  0.938
    ## # … with 69 more rows

``` r
cv_df %>% pull(test) %>% .[[1]] %>% as_tibble
```

    ## # A tibble: 21 x 3
    ##       id      x       y
    ##    <int>  <dbl>   <dbl>
    ##  1     2 0.372   0.764 
    ##  2    11 0.206   1.63  
    ##  3    12 0.177   0.836 
    ##  4    13 0.687  -0.291 
    ##  5    15 0.770  -1.43  
    ##  6    16 0.498   0.666 
    ##  7    21 0.935  -2.89  
    ##  8    27 0.0134  0.0456
    ##  9    28 0.382   0.932 
    ## 10    29 0.870  -2.22  
    ## # … with 11 more rows
…
